{
  "swagger": "2.0",
  "info": {
    "title": "My Music",
    "description": "My Music: Build a website that allows users to register and sign in and add as many music playlist as they want",
    "version": "1.0.0",
    "license": {
      "name": "MIT",
      "url": "https://opensource.org/licenses/MIT"
    }
  },
  "host": "localhost:8100",
  "basePath": "/api/v1",
  "tags": [
    {
      "name": "Users",
      "description": "API for users in the system"
    }
  ],
  "schemes": [
    "http"
  ],
  "consumes": [
    "application/json"
  ],
  "produces": [
    "application/json"
  ],
  "paths": {
    "/test1": {
      "get": {
        "x-swagger-router-controller": "middleware-name1",
        "operationId": "swagTest",
        "tags": ["/test"],
        "description": "",
        "parameters": [],
        "responses": {}
      }
    }
  }
}